# Check output

    Code
      simulate_data(nSubj = 10, nGroups = 3)
    Output
      # A tibble: 630 x 4
          subj group      x     y
         <dbl> <chr>  <dbl> <dbl>
       1     1 group1 -0.5  3.41 
       2     1 group1 -0.45 3.71 
       3     1 group1 -0.4  1.56 
       4     1 group1 -0.35 0    
       5     1 group1 -0.3  2.12 
       6     1 group1 -0.25 2.34 
       7     1 group1 -0.2  0.219
       8     1 group1 -0.15 0.386
       9     1 group1 -0.1  0    
      10     1 group1 -0.05 0.995
      # i 620 more rows
