augGauss • augGauss
…
‘augGauss’ is under active development, you can install the
development version of ‘augGauss’ from GitHub with:

# install.packages("remotes")
remotes::install_github("fontikar/augGauss")

library(augGauss)

Getting started

We will be using some example data to demonstrate the main functions
of augGauss

demo_data |> print(n = 6)
#> # A tibble: 630 × 4
#>    subj group      x     y
#>   <dbl> <chr>  <dbl> <dbl>
#> 1     1 group1 -0.5   5.06
#> 2     1 group1 -0.45  6.74
#> 3     1 group1 -0.4  10.2 
#> 4     1 group1 -0.35 11.5 
#> 5     1 group1 -0.3  18.8 
#> 6     1 group1 -0.25 28.8 
#> # ℹ 624 more rows

?demo_data

Simulate gradients from raw data

sim_data <- simulate_data(nSubj = 10, nGroups = 3)

sim_data  |> print(n = 6)
#> # A tibble: 630 × 4
#>    subj group      x     y
#>   <dbl> <chr>  <dbl> <dbl>
#> 1     1 group1 -0.5   20.8
#> 2     1 group1 -0.45  28.0
#> 3     1 group1 -0.4   39.9
#> 4     1 group1 -0.35  49.3
#> 5     1 group1 -0.3   58.8
#> 6     1 group1 -0.25  62.6
#> # ℹ 624 more rows
…
